-- Merging decision tree log ---
manifest
ADDED from /home/michael/AndroidStudioProjects/ClockOnly/app/src/main/AndroidManifest.xml:2:1-47:12
INJECTED from /home/michael/AndroidStudioProjects/ClockOnly/app/src/main/AndroidManifest.xml:2:1-47:12
INJECTED from /home/michael/AndroidStudioProjects/ClockOnly/app/src/main/AndroidManifest.xml:2:1-47:12
INJECTED from /home/michael/AndroidStudioProjects/ClockOnly/app/src/main/AndroidManifest.xml:2:1-47:12
MERGED from [androidx.constraintlayout:constraintlayout:2.1.2] /home/michael/.gradle/caches/transforms-3/45019ef3417b6728bfcdfc768cf637d7/transformed/constraintlayout-2.1.2/AndroidManifest.xml:2:1-11:12
MERGED from [androidx.appcompat:appcompat:1.4.0] /home/michael/.gradle/caches/transforms-3/8e2706a300bbec00002d22cf9bfadad6/transformed/appcompat-1.4.0/AndroidManifest.xml:17:1-24:12
MERGED from [androidx.legacy:legacy-support-v4:1.0.0] /home/michael/.gradle/caches/transforms-3/407323dbf1cc0c2dfd65a5d80eab9989/transformed/legacy-support-v4-1.0.0/AndroidManifest.xml:17:1-22:12
MERGED from [androidx.fragment:fragment:1.3.6] /home/michael/.gradle/caches/transforms-3/67d25f09ab2f7ac9224543c125f8fa67/transformed/fragment-1.3.6/AndroidManifest.xml:17:1-24:12
MERGED from [androidx.activity:activity:1.2.4] /home/michael/.gradle/caches/transforms-3/aac0c79a6fdb1eb18eb36d7ebcddb8ca/transformed/jetified-activity-1.2.4/AndroidManifest.xml:17:1-24:12
MERGED from [androidx.appcompat:appcompat-resources:1.4.0] /home/michael/.gradle/caches/transforms-3/d04129008a1ab91700827965297b4abf/transformed/jetified-appcompat-resources-1.4.0/AndroidManifest.xml:17:1-24:12
MERGED from [androidx.legacy:legacy-support-core-ui:1.0.0] /home/michael/.gradle/caches/transforms-3/5d604c714d8c1cc9bc697a610a9f3f59/transformed/legacy-support-core-ui-1.0.0/AndroidManifest.xml:17:1-22:12
MERGED from [androidx.drawerlayout:drawerlayout:1.0.0] /home/michael/.gradle/caches/transforms-3/7d819bd80f7f6539261b7afe5a8ca26c/transformed/drawerlayout-1.0.0/AndroidManifest.xml:17:1-22:12
MERGED from [androidx.emoji2:emoji2-views-helper:1.0.0] /home/michael/.gradle/caches/transforms-3/3c5e58b62ef26f85c19a76a46373f767/transformed/jetified-emoji2-views-helper-1.0.0/AndroidManifest.xml:17:1-24:12
MERGED from [androidx.emoji2:emoji2:1.0.0] /home/michael/.gradle/caches/transforms-3/86bbdb4c704f0c6ef69f85fd6941d5d8/transformed/jetified-emoji2-1.0.0/AndroidManifest.xml:17:1-37:12
MERGED from [androidx.media:media:1.0.0] /home/michael/.gradle/caches/transforms-3/a9f4b58c9a2ae423fef5b0d767ddffe8/transformed/media-1.0.0/AndroidManifest.xml:17:1-22:12
MERGED from [androidx.legacy:legacy-support-core-utils:1.0.0] /home/michael/.gradle/caches/transforms-3/0b626b793134e203e9d77407482c624b/transformed/legacy-support-core-utils-1.0.0/AndroidManifest.xml:17:1-22:12
MERGED from [androidx.viewpager:viewpager:1.0.0] /home/michael/.gradle/caches/transforms-3/48cfbb676c8d8fdf095b0734ebc7ff16/transformed/viewpager-1.0.0/AndroidManifest.xml:17:1-22:12
MERGED from [androidx.loader:loader:1.0.0] /home/michael/.gradle/caches/transforms-3/e7665e67ed92725123890cd5c4675a32/transformed/loader-1.0.0/AndroidManifest.xml:17:1-22:12
MERGED from [androidx.vectordrawable:vectordrawable-animated:1.1.0] /home/michael/.gradle/caches/transforms-3/0b06347edc532aeb69f6e86eb2ffc35a/transformed/vectordrawable-animated-1.1.0/AndroidManifest.xml:17:1-24:12
MERGED from [androidx.vectordrawable:vectordrawable:1.1.0] /home/michael/.gradle/caches/transforms-3/c095d5953d9a5de11177550da37e5391/transformed/vectordrawable-1.1.0/AndroidManifest.xml:17:1-24:12
MERGED from [androidx.coordinatorlayout:coordinatorlayout:1.0.0] /home/michael/.gradle/caches/transforms-3/0bd3ca27d7fc4f868b51c7b0dd8c880d/transformed/coordinatorlayout-1.0.0/AndroidManifest.xml:17:1-22:12
MERGED from [androidx.slidingpanelayout:slidingpanelayout:1.0.0] /home/michael/.gradle/caches/transforms-3/3efed5264dd3d724684c61d1f8471dbb/transformed/slidingpanelayout-1.0.0/AndroidManifest.xml:17:1-22:12
MERGED from [androidx.customview:customview:1.0.0] /home/michael/.gradle/caches/transforms-3/6018523bfe79b13331060b6a493f2c2b/transformed/customview-1.0.0/AndroidManifest.xml:17:1-22:12
MERGED from [androidx.swiperefreshlayout:swiperefreshlayout:1.0.0] /home/michael/.gradle/caches/transforms-3/1d844f8d732e2c5731b1691e2a4d54e7/transformed/swiperefreshlayout-1.0.0/AndroidManifest.xml:17:1-22:12
MERGED from [androidx.asynclayoutinflater:asynclayoutinflater:1.0.0] /home/michael/.gradle/caches/transforms-3/6bfb7ebd3db7b99a6e5e9cd9988ee013/transformed/asynclayoutinflater-1.0.0/AndroidManifest.xml:17:1-22:12
MERGED from [androidx.core:core:1.7.0] /home/michael/.gradle/caches/transforms-3/fb3270031bd107031c21c5dc13d9e5ef/transformed/core-1.7.0/AndroidManifest.xml:17:1-26:12
MERGED from [androidx.cursoradapter:cursoradapter:1.0.0] /home/michael/.gradle/caches/transforms-3/65ebe03e4e10c1ace6e2e55e2f8a05d4/transformed/cursoradapter-1.0.0/AndroidManifest.xml:17:1-22:12
MERGED from [androidx.lifecycle:lifecycle-viewmodel-savedstate:2.3.1] /home/michael/.gradle/caches/transforms-3/38c1a1d1d5006288f38505277d70513a/transformed/jetified-lifecycle-viewmodel-savedstate-2.3.1/AndroidManifest.xml:17:1-24:12
MERGED from [androidx.savedstate:savedstate:1.1.0] /home/michael/.gradle/caches/transforms-3/05c2334ac2b2b17a926685f045138f4e/transformed/jetified-savedstate-1.1.0/AndroidManifest.xml:17:1-24:12
MERGED from [androidx.lifecycle:lifecycle-viewmodel:2.3.1] /home/michael/.gradle/caches/transforms-3/d039894940e1ce659240770c4e6c84a9/transformed/lifecycle-viewmodel-2.3.1/AndroidManifest.xml:17:1-24:12
MERGED from [androidx.versionedparcelable:versionedparcelable:1.1.1] /home/michael/.gradle/caches/transforms-3/70f63520192deee43ee88ab45563d13d/transformed/versionedparcelable-1.1.1/AndroidManifest.xml:17:1-27:12
MERGED from [androidx.lifecycle:lifecycle-process:2.4.0] /home/michael/.gradle/caches/transforms-3/60fb03f7868607ff1baa13fa3ab998ab/transformed/jetified-lifecycle-process-2.4.0/AndroidManifest.xml:17:1-37:12
MERGED from [androidx.startup:startup-runtime:1.0.0] /home/michael/.gradle/caches/transforms-3/50797515ba23eae0141ac3fb36437520/transformed/jetified-startup-runtime-1.0.0/AndroidManifest.xml:17:1-33:12
MERGED from [androidx.tracing:tracing:1.0.0] /home/michael/.gradle/caches/transforms-3/ed7ed0ca27edb40e377e214bdfbdd39a/transformed/jetified-tracing-1.0.0/AndroidManifest.xml:17:1-24:12
MERGED from [androidx.lifecycle:lifecycle-livedata:2.0.0] /home/michael/.gradle/caches/transforms-3/eecd0188d0cf41e88de876d649a36214/transformed/lifecycle-livedata-2.0.0/AndroidManifest.xml:17:1-22:12
MERGED from [androidx.lifecycle:lifecycle-livedata-core:2.3.1] /home/michael/.gradle/caches/transforms-3/d1f4bbc3f5cd7e1c330f82edcfb16327/transformed/lifecycle-livedata-core-2.3.1/AndroidManifest.xml:17:1-24:12
MERGED from [androidx.lifecycle:lifecycle-runtime:2.4.0] /home/michael/.gradle/caches/transforms-3/f5b1cf69ca8682e4d6b881300287a614/transformed/lifecycle-runtime-2.4.0/AndroidManifest.xml:17:1-24:12
MERGED from [androidx.arch.core:core-runtime:2.1.0] /home/michael/.gradle/caches/transforms-3/22eb259cbf1a4aa11334cf36c7a52187/transformed/core-runtime-2.1.0/AndroidManifest.xml:17:1-24:12
MERGED from [androidx.documentfile:documentfile:1.0.0] /home/michael/.gradle/caches/transforms-3/e55723aeacef8d217e23fbf922a70733/transformed/documentfile-1.0.0/AndroidManifest.xml:17:1-22:12
MERGED from [androidx.localbroadcastmanager:localbroadcastmanager:1.0.0] /home/michael/.gradle/caches/transforms-3/6b2bca196f44edb806d00295fdcab713/transformed/localbroadcastmanager-1.0.0/AndroidManifest.xml:17:1-22:12
MERGED from [androidx.print:print:1.0.0] /home/michael/.gradle/caches/transforms-3/43037c0b2dd43be656c119826bff6d23/transformed/print-1.0.0/AndroidManifest.xml:17:1-22:12
MERGED from [androidx.interpolator:interpolator:1.0.0] /home/michael/.gradle/caches/transforms-3/a30726b6f8c841ac03bf6f43d779f480/transformed/interpolator-1.0.0/AndroidManifest.xml:17:1-22:12
MERGED from [androidx.annotation:annotation-experimental:1.1.0] /home/michael/.gradle/caches/transforms-3/29c7b199d4646ee497ba13091e7b830d/transformed/jetified-annotation-experimental-1.1.0/AndroidManifest.xml:17:1-24:12
INJECTED from /home/michael/AndroidStudioProjects/ClockOnly/app/src/main/AndroidManifest.xml:2:1-47:12
INJECTED from /home/michael/AndroidStudioProjects/ClockOnly/app/src/main/AndroidManifest.xml:2:1-47:12
INJECTED from /home/michael/AndroidStudioProjects/ClockOnly/app/src/main/AndroidManifest.xml:2:1-47:12
	package
		ADDED from /home/michael/AndroidStudioProjects/ClockOnly/app/src/main/AndroidManifest.xml:2:11-56
		INJECTED from /home/michael/AndroidStudioProjects/ClockOnly/app/src/main/AndroidManifest.xml
		INJECTED from /home/michael/AndroidStudioProjects/ClockOnly/app/src/main/AndroidManifest.xml
	android:versionName
		INJECTED from /home/michael/AndroidStudioProjects/ClockOnly/app/src/main/AndroidManifest.xml
		ADDED from /home/michael/AndroidStudioProjects/ClockOnly/app/src/main/AndroidManifest.xml:2:1-47:12
		INJECTED from /home/michael/AndroidStudioProjects/ClockOnly/app/src/main/AndroidManifest.xml
	android:versionCode
		INJECTED from /home/michael/AndroidStudioProjects/ClockOnly/app/src/main/AndroidManifest.xml
		ADDED from /home/michael/AndroidStudioProjects/ClockOnly/app/src/main/AndroidManifest.xml:2:1-47:12
		INJECTED from /home/michael/AndroidStudioProjects/ClockOnly/app/src/main/AndroidManifest.xml
	xmlns:android
		ADDED from /home/michael/AndroidStudioProjects/ClockOnly/app/src/main/AndroidManifest.xml:3:11-71
application
ADDED from /home/michael/AndroidStudioProjects/ClockOnly/app/src/main/AndroidManifest.xml:5:5-45:19
MERGED from [androidx.constraintlayout:constraintlayout:2.1.2] /home/michael/.gradle/caches/transforms-3/45019ef3417b6728bfcdfc768cf637d7/transformed/constraintlayout-2.1.2/AndroidManifest.xml:9:5-20
MERGED from [androidx.constraintlayout:constraintlayout:2.1.2] /home/michael/.gradle/caches/transforms-3/45019ef3417b6728bfcdfc768cf637d7/transformed/constraintlayout-2.1.2/AndroidManifest.xml:9:5-20
MERGED from [androidx.emoji2:emoji2:1.0.0] /home/michael/.gradle/caches/transforms-3/86bbdb4c704f0c6ef69f85fd6941d5d8/transformed/jetified-emoji2-1.0.0/AndroidManifest.xml:25:5-35:19
MERGED from [androidx.emoji2:emoji2:1.0.0] /home/michael/.gradle/caches/transforms-3/86bbdb4c704f0c6ef69f85fd6941d5d8/transformed/jetified-emoji2-1.0.0/AndroidManifest.xml:25:5-35:19
MERGED from [androidx.core:core:1.7.0] /home/michael/.gradle/caches/transforms-3/fb3270031bd107031c21c5dc13d9e5ef/transformed/core-1.7.0/AndroidManifest.xml:24:5-89
MERGED from [androidx.core:core:1.7.0] /home/michael/.gradle/caches/transforms-3/fb3270031bd107031c21c5dc13d9e5ef/transformed/core-1.7.0/AndroidManifest.xml:24:5-89
MERGED from [androidx.versionedparcelable:versionedparcelable:1.1.1] /home/michael/.gradle/caches/transforms-3/70f63520192deee43ee88ab45563d13d/transformed/versionedparcelable-1.1.1/AndroidManifest.xml:24:5-25:19
MERGED from [androidx.versionedparcelable:versionedparcelable:1.1.1] /home/michael/.gradle/caches/transforms-3/70f63520192deee43ee88ab45563d13d/transformed/versionedparcelable-1.1.1/AndroidManifest.xml:24:5-25:19
MERGED from [androidx.lifecycle:lifecycle-process:2.4.0] /home/michael/.gradle/caches/transforms-3/60fb03f7868607ff1baa13fa3ab998ab/transformed/jetified-lifecycle-process-2.4.0/AndroidManifest.xml:25:5-35:19
MERGED from [androidx.lifecycle:lifecycle-process:2.4.0] /home/michael/.gradle/caches/transforms-3/60fb03f7868607ff1baa13fa3ab998ab/transformed/jetified-lifecycle-process-2.4.0/AndroidManifest.xml:25:5-35:19
MERGED from [androidx.startup:startup-runtime:1.0.0] /home/michael/.gradle/caches/transforms-3/50797515ba23eae0141ac3fb36437520/transformed/jetified-startup-runtime-1.0.0/AndroidManifest.xml:25:5-31:19
MERGED from [androidx.startup:startup-runtime:1.0.0] /home/michael/.gradle/caches/transforms-3/50797515ba23eae0141ac3fb36437520/transformed/jetified-startup-runtime-1.0.0/AndroidManifest.xml:25:5-31:19
	android:appComponentFactory
		ADDED from [androidx.core:core:1.7.0] /home/michael/.gradle/caches/transforms-3/fb3270031bd107031c21c5dc13d9e5ef/transformed/core-1.7.0/AndroidManifest.xml:24:18-86
	android:label
		ADDED from /home/michael/AndroidStudioProjects/ClockOnly/app/src/main/AndroidManifest.xml:8:9-43
	android:icon
		ADDED from /home/michael/AndroidStudioProjects/ClockOnly/app/src/main/AndroidManifest.xml:7:9-45
	android:allowBackup
		ADDED from /home/michael/AndroidStudioProjects/ClockOnly/app/src/main/AndroidManifest.xml:6:9-38
	android:theme
		ADDED from /home/michael/AndroidStudioProjects/ClockOnly/app/src/main/AndroidManifest.xml:9:9-42
activity#com.chancehorizon.just24hoursplus.theClockActivity
ADDED from /home/michael/AndroidStudioProjects/ClockOnly/app/src/main/AndroidManifest.xml:10:9-21:20
	android:label
		ADDED from /home/michael/AndroidStudioProjects/ClockOnly/app/src/main/AndroidManifest.xml:13:13-47
	android:exported
		ADDED from /home/michael/AndroidStudioProjects/ClockOnly/app/src/main/AndroidManifest.xml:15:13-38
	android:configChanges
		ADDED from /home/michael/AndroidStudioProjects/ClockOnly/app/src/main/AndroidManifest.xml:12:13-76
	android:theme
		ADDED from /home/michael/AndroidStudioProjects/ClockOnly/app/src/main/AndroidManifest.xml:14:13-79
	android:name
		ADDED from /home/michael/AndroidStudioProjects/ClockOnly/app/src/main/AndroidManifest.xml:11:13-47
intent-filter#action:name:android.intent.action.MAIN+category:name:android.intent.category.LAUNCHER
ADDED from /home/michael/AndroidStudioProjects/ClockOnly/app/src/main/AndroidManifest.xml:16:13-20:29
action#android.intent.action.MAIN
ADDED from /home/michael/AndroidStudioProjects/ClockOnly/app/src/main/AndroidManifest.xml:17:17-70
	android:name
		ADDED from /home/michael/AndroidStudioProjects/ClockOnly/app/src/main/AndroidManifest.xml:17:25-68
category#android.intent.category.LAUNCHER
ADDED from /home/michael/AndroidStudioProjects/ClockOnly/app/src/main/AndroidManifest.xml:19:17-78
	android:name
		ADDED from /home/michael/AndroidStudioProjects/ClockOnly/app/src/main/AndroidManifest.xml:19:27-76
activity#com.chancehorizon.just24hoursplus.WelcomeActivity
ADDED from /home/michael/AndroidStudioProjects/ClockOnly/app/src/main/AndroidManifest.xml:22:9-23:20
	android:name
		ADDED from /home/michael/AndroidStudioProjects/ClockOnly/app/src/main/AndroidManifest.xml:22:19-52
receiver#com.chancehorizon.just24hoursplus.just24Widget
ADDED from /home/michael/AndroidStudioProjects/ClockOnly/app/src/main/AndroidManifest.xml:25:9-34:20
	android:exported
		ADDED from /home/michael/AndroidStudioProjects/ClockOnly/app/src/main/AndroidManifest.xml:26:13-39
	android:name
		ADDED from /home/michael/AndroidStudioProjects/ClockOnly/app/src/main/AndroidManifest.xml:25:19-49
intent-filter#action:name:android.appwidget.action.APPWIDGET_UPDATE
ADDED from /home/michael/AndroidStudioProjects/ClockOnly/app/src/main/AndroidManifest.xml:27:13-29:29
action#android.appwidget.action.APPWIDGET_UPDATE
ADDED from /home/michael/AndroidStudioProjects/ClockOnly/app/src/main/AndroidManifest.xml:28:17-85
	android:name
		ADDED from /home/michael/AndroidStudioProjects/ClockOnly/app/src/main/AndroidManifest.xml:28:25-83
meta-data#android.appwidget.provider
ADDED from /home/michael/AndroidStudioProjects/ClockOnly/app/src/main/AndroidManifest.xml:31:13-33:63
	android:resource
		ADDED from /home/michael/AndroidStudioProjects/ClockOnly/app/src/main/AndroidManifest.xml:33:17-61
	android:name
		ADDED from /home/michael/AndroidStudioProjects/ClockOnly/app/src/main/AndroidManifest.xml:32:17-60
receiver#com.chancehorizon.just24hoursplus.Just24DateWidget
ADDED from /home/michael/AndroidStudioProjects/ClockOnly/app/src/main/AndroidManifest.xml:35:9-44:20
	android:exported
		ADDED from /home/michael/AndroidStudioProjects/ClockOnly/app/src/main/AndroidManifest.xml:36:13-39
	android:name
		ADDED from /home/michael/AndroidStudioProjects/ClockOnly/app/src/main/AndroidManifest.xml:35:19-53
uses-sdk
INJECTED from /home/michael/AndroidStudioProjects/ClockOnly/app/src/main/AndroidManifest.xml reason: use-sdk injection requested
INJECTED from /home/michael/AndroidStudioProjects/ClockOnly/app/src/main/AndroidManifest.xml
INJECTED from /home/michael/AndroidStudioProjects/ClockOnly/app/src/main/AndroidManifest.xml
MERGED from [androidx.constraintlayout:constraintlayout:2.1.2] /home/michael/.gradle/caches/transforms-3/45019ef3417b6728bfcdfc768cf637d7/transformed/constraintlayout-2.1.2/AndroidManifest.xml:5:5-7:41
MERGED from [androidx.constraintlayout:constraintlayout:2.1.2] /home/michael/.gradle/caches/transforms-3/45019ef3417b6728bfcdfc768cf637d7/transformed/constraintlayout-2.1.2/AndroidManifest.xml:5:5-7:41
MERGED from [androidx.appcompat:appcompat:1.4.0] /home/michael/.gradle/caches/transforms-3/8e2706a300bbec00002d22cf9bfadad6/transformed/appcompat-1.4.0/AndroidManifest.xml:20:5-22:41
MERGED from [androidx.appcompat:appcompat:1.4.0] /home/michael/.gradle/caches/transforms-3/8e2706a300bbec00002d22cf9bfadad6/transformed/appcompat-1.4.0/AndroidManifest.xml:20:5-22:41
MERGED from [androidx.legacy:legacy-support-v4:1.0.0] /home/michael/.gradle/caches/transforms-3/407323dbf1cc0c2dfd65a5d80eab9989/transformed/legacy-support-v4-1.0.0/AndroidManifest.xml:20:5-44
MERGED from [androidx.legacy:legacy-support-v4:1.0.0] /home/michael/.gradle/caches/transforms-3/407323dbf1cc0c2dfd65a5d80eab9989/transformed/legacy-support-v4-1.0.0/AndroidManifest.xml:20:5-44
MERGED from [androidx.fragment:fragment:1.3.6] /home/michael/.gradle/caches/transforms-3/67d25f09ab2f7ac9224543c125f8fa67/transformed/fragment-1.3.6/AndroidManifest.xml:20:5-22:41
MERGED from [androidx.fragment:fragment:1.3.6] /home/michael/.gradle/caches/transforms-3/67d25f09ab2f7ac9224543c125f8fa67/transformed/fragment-1.3.6/AndroidManifest.xml:20:5-22:41
MERGED from [androidx.activity:activity:1.2.4] /home/michael/.gradle/caches/transforms-3/aac0c79a6fdb1eb18eb36d7ebcddb8ca/transformed/jetified-activity-1.2.4/AndroidManifest.xml:20:5-22:41
MERGED from [androidx.activity:activity:1.2.4] /home/michael/.gradle/caches/transforms-3/aac0c79a6fdb1eb18eb36d7ebcddb8ca/transformed/jetified-activity-1.2.4/AndroidManifest.xml:20:5-22:41
MERGED from [androidx.appcompat:appcompat-resources:1.4.0] /home/michael/.gradle/caches/transforms-3/d04129008a1ab91700827965297b4abf/transformed/jetified-appcompat-resources-1.4.0/AndroidManifest.xml:20:5-22:41
MERGED from [androidx.appcompat:appcompat-resources:1.4.0] /home/michael/.gradle/caches/transforms-3/d04129008a1ab91700827965297b4abf/transformed/jetified-appcompat-resources-1.4.0/AndroidManifest.xml:20:5-22:41
MERGED from [androidx.legacy:legacy-support-core-ui:1.0.0] /home/michael/.gradle/caches/transforms-3/5d604c714d8c1cc9bc697a610a9f3f59/transformed/legacy-support-core-ui-1.0.0/AndroidManifest.xml:20:5-44
MERGED from [androidx.legacy:legacy-support-core-ui:1.0.0] /home/michael/.gradle/caches/transforms-3/5d604c714d8c1cc9bc697a610a9f3f59/transformed/legacy-support-core-ui-1.0.0/AndroidManifest.xml:20:5-44
MERGED from [androidx.drawerlayout:drawerlayout:1.0.0] /home/michael/.gradle/caches/transforms-3/7d819bd80f7f6539261b7afe5a8ca26c/transformed/drawerlayout-1.0.0/AndroidManifest.xml:20:5-44
MERGED from [androidx.drawerlayout:drawerlayout:1.0.0] /home/michael/.gradle/caches/transforms-3/7d819bd80f7f6539261b7afe5a8ca26c/transformed/drawerlayout-1.0.0/AndroidManifest.xml:20:5-44
MERGED from [androidx.emoji2:emoji2-views-helper:1.0.0] /home/michael/.gradle/caches/transforms-3/3c5e58b62ef26f85c19a76a46373f767/transformed/jetified-emoji2-views-helper-1.0.0/AndroidManifest.xml:20:5-22:41
MERGED from [androidx.emoji2:emoji2-views-helper:1.0.0] /home/michael/.gradle/caches/transforms-3/3c5e58b62ef26f85c19a76a46373f767/transformed/jetified-emoji2-views-helper-1.0.0/AndroidManifest.xml:20:5-22:41
MERGED from [androidx.emoji2:emoji2:1.0.0] /home/michael/.gradle/caches/transforms-3/86bbdb4c704f0c6ef69f85fd6941d5d8/transformed/jetified-emoji2-1.0.0/AndroidManifest.xml:21:5-23:41
MERGED from [androidx.emoji2:emoji2:1.0.0] /home/michael/.gradle/caches/transforms-3/86bbdb4c704f0c6ef69f85fd6941d5d8/transformed/jetified-emoji2-1.0.0/AndroidManifest.xml:21:5-23:41
MERGED from [androidx.media:media:1.0.0] /home/michael/.gradle/caches/transforms-3/a9f4b58c9a2ae423fef5b0d767ddffe8/transformed/media-1.0.0/AndroidManifest.xml:20:5-44
MERGED from [androidx.media:media:1.0.0] /home/michael/.gradle/caches/transforms-3/a9f4b58c9a2ae423fef5b0d767ddffe8/transformed/media-1.0.0/AndroidManifest.xml:20:5-44
MERGED from [androidx.legacy:legacy-support-core-utils:1.0.0] /home/michael/.gradle/caches/transforms-3/0b626b793134e203e9d77407482c624b/transformed/legacy-support-core-utils-1.0.0/AndroidManifest.xml:20:5-44
MERGED from [androidx.legacy:legacy-support-core-utils:1.0.0] /home/michael/.gradle/caches/transforms-3/0b626b793134e203e9d77407482c624b/transformed/legacy-support-core-utils-1.0.0/AndroidManifest.xml:20:5-44
MERGED from [androidx.viewpager:viewpager:1.0.0] /home/michael/.gradle/caches/transforms-3/48cfbb676c8d8fdf095b0734ebc7ff16/transformed/viewpager-1.0.0/AndroidManifest.xml:20:5-44
MERGED from [androidx.viewpager:viewpager:1.0.0] /home/michael/.gradle/caches/transforms-3/48cfbb676c8d8fdf095b0734ebc7ff16/transformed/viewpager-1.0.0/AndroidManifest.xml:20:5-44
MERGED from [androidx.loader:loader:1.0.0] /home/michael/.gradle/caches/transforms-3/e7665e67ed92725123890cd5c4675a32/transformed/loader-1.0.0/AndroidManifest.xml:20:5-44
MERGED from [androidx.loader:loader:1.0.0] /home/michael/.gradle/caches/transforms-3/e7665e67ed92725123890cd5c4675a32/transformed/loader-1.0.0/AndroidManifest.xml:20:5-44
MERGED from [androidx.vectordrawable:vectordrawable-animated:1.1.0] /home/michael/.gradle/caches/transforms-3/0b06347edc532aeb69f6e86eb2ffc35a/transformed/vectordrawable-animated-1.1.0/AndroidManifest.xml:20:5-22:41
MERGED from [androidx.vectordrawable:vectordrawable-animated:1.1.0] /home/michael/.gradle/caches/transforms-3/0b06347edc532aeb69f6e86eb2ffc35a/transformed/vectordrawable-animated-1.1.0/AndroidManifest.xml:20:5-22:41
MERGED from [androidx.vectordrawable:vectordrawable:1.1.0] /home/michael/.gradle/caches/transforms-3/c095d5953d9a5de11177550da37e5391/transformed/vectordrawable-1.1.0/AndroidManifest.xml:20:5-22:41
MERGED from [androidx.vectordrawable:vectordrawable:1.1.0] /home/michael/.gradle/caches/transforms-3/c095d5953d9a5de11177550da37e5391/transformed/vectordrawable-1.1.0/AndroidManifest.xml:20:5-22:41
MERGED from [androidx.coordinatorlayout:coordinatorlayout:1.0.0] /home/michael/.gradle/caches/transforms-3/0bd3ca27d7fc4f868b51c7b0dd8c880d/transformed/coordinatorlayout-1.0.0/AndroidManifest.xml:20:5-44
MERGED from [androidx.coordinatorlayout:coordinatorlayout:1.0.0] /home/michael/.gradle/caches/transforms-3/0bd3ca27d7fc4f868b51c7b0dd8c880d/transformed/coordinatorlayout-1.0.0/AndroidManifest.xml:20:5-44
MERGED from [androidx.slidingpanelayout:slidingpanelayout:1.0.0] /home/michael/.gradle/caches/transforms-3/3efed5264dd3d724684c61d1f8471dbb/transformed/slidingpanelayout-1.0.0/AndroidManifest.xml:20:5-44
MERGED from [androidx.slidingpanelayout:slidingpanelayout:1.0.0] /home/michael/.gradle/caches/transforms-3/3efed5264dd3d724684c61d1f8471dbb/transformed/slidingpanelayout-1.0.0/AndroidManifest.xml:20:5-44
MERGED from [androidx.customview:customview:1.0.0] /home/michael/.gradle/caches/transforms-3/6018523bfe79b13331060b6a493f2c2b/transformed/customview-1.0.0/AndroidManifest.xml:20:5-44
MERGED from [androidx.customview:customview:1.0.0] /home/michael/.gradle/caches/transforms-3/6018523bfe79b13331060b6a493f2c2b/transformed/customview-1.0.0/AndroidManifest.xml:20:5-44
MERGED from [androidx.swiperefreshlayout:swiperefreshlayout:1.0.0] /home/michael/.gradle/caches/transforms-3/1d844f8d732e2c5731b1691e2a4d54e7/transformed/swiperefreshlayout-1.0.0/AndroidManifest.xml:20:5-44
MERGED from [androidx.swiperefreshlayout:swiperefreshlayout:1.0.0] /home/michael/.gradle/caches/transforms-3/1d844f8d732e2c5731b1691e2a4d54e7/transformed/swiperefreshlayout-1.0.0/AndroidManifest.xml:20:5-44
MERGED from [androidx.asynclayoutinflater:asynclayoutinflater:1.0.0] /home/michael/.gradle/caches/transforms-3/6bfb7ebd3db7b99a6e5e9cd9988ee013/transformed/asynclayoutinflater-1.0.0/AndroidManifest.xml:20:5-44
MERGED from [androidx.asynclayoutinflater:asynclayoutinflater:1.0.0] /home/michael/.gradle/caches/transforms-3/6bfb7ebd3db7b99a6e5e9cd9988ee013/transformed/asynclayoutinflater-1.0.0/AndroidManifest.xml:20:5-44
MERGED from [androidx.core:core:1.7.0] /home/michael/.gradle/caches/transforms-3/fb3270031bd107031c21c5dc13d9e5ef/transformed/core-1.7.0/AndroidManifest.xml:20:5-22:41
MERGED from [androidx.core:core:1.7.0] /home/michael/.gradle/caches/transforms-3/fb3270031bd107031c21c5dc13d9e5ef/transformed/core-1.7.0/AndroidManifest.xml:20:5-22:41
MERGED from [androidx.cursoradapter:cursoradapter:1.0.0] /home/michael/.gradle/caches/transforms-3/65ebe03e4e10c1ace6e2e55e2f8a05d4/transformed/cursoradapter-1.0.0/AndroidManifest.xml:20:5-44
MERGED from [androidx.cursoradapter:cursoradapter:1.0.0] /home/michael/.gradle/caches/transforms-3/65ebe03e4e10c1ace6e2e55e2f8a05d4/transformed/cursoradapter-1.0.0/AndroidManifest.xml:20:5-44
MERGED from [androidx.lifecycle:lifecycle-viewmodel-savedstate:2.3.1] /home/michael/.gradle/caches/transforms-3/38c1a1d1d5006288f38505277d70513a/transformed/jetified-lifecycle-viewmodel-savedstate-2.3.1/AndroidManifest.xml:20:5-22:41
MERGED from [androidx.lifecycle:lifecycle-viewmodel-savedstate:2.3.1] /home/michael/.gradle/caches/transforms-3/38c1a1d1d5006288f38505277d70513a/transformed/jetified-lifecycle-viewmodel-savedstate-2.3.1/AndroidManifest.xml:20:5-22:41
MERGED from [androidx.savedstate:savedstate:1.1.0] /home/michael/.gradle/caches/transforms-3/05c2334ac2b2b17a926685f045138f4e/transformed/jetified-savedstate-1.1.0/AndroidManifest.xml:20:5-22:41
MERGED from [androidx.savedstate:savedstate:1.1.0] /home/michael/.gradle/caches/transforms-3/05c2334ac2b2b17a926685f045138f4e/transformed/jetified-savedstate-1.1.0/AndroidManifest.xml:20:5-22:41
MERGED from [androidx.lifecycle:lifecycle-viewmodel:2.3.1] /home/michael/.gradle/caches/transforms-3/d039894940e1ce659240770c4e6c84a9/transformed/lifecycle-viewmodel-2.3.1/AndroidManifest.xml:20:5-22:41
MERGED from [androidx.lifecycle:lifecycle-viewmodel:2.3.1] /home/michael/.gradle/caches/transforms-3/d039894940e1ce659240770c4e6c84a9/transformed/lifecycle-viewmodel-2.3.1/AndroidManifest.xml:20:5-22:41
MERGED from [androidx.versionedparcelable:versionedparcelable:1.1.1] /home/michael/.gradle/caches/transforms-3/70f63520192deee43ee88ab45563d13d/transformed/versionedparcelable-1.1.1/AndroidManifest.xml:20:5-22:41
MERGED from [androidx.versionedparcelable:versionedparcelable:1.1.1] /home/michael/.gradle/caches/transforms-3/70f63520192deee43ee88ab45563d13d/transformed/versionedparcelable-1.1.1/AndroidManifest.xml:20:5-22:41
MERGED from [androidx.lifecycle:lifecycle-process:2.4.0] /home/michael/.gradle/caches/transforms-3/60fb03f7868607ff1baa13fa3ab998ab/transformed/jetified-lifecycle-process-2.4.0/AndroidManifest.xml:21:5-23:41
MERGED from [androidx.lifecycle:lifecycle-process:2.4.0] /home/michael/.gradle/caches/transforms-3/60fb03f7868607ff1baa13fa3ab998ab/transformed/jetified-lifecycle-process-2.4.0/AndroidManifest.xml:21:5-23:41
MERGED from [androidx.startup:startup-runtime:1.0.0] /home/michael/.gradle/caches/transforms-3/50797515ba23eae0141ac3fb36437520/transformed/jetified-startup-runtime-1.0.0/AndroidManifest.xml:21:5-23:41
MERGED from [androidx.startup:startup-runtime:1.0.0] /home/michael/.gradle/caches/transforms-3/50797515ba23eae0141ac3fb36437520/transformed/jetified-startup-runtime-1.0.0/AndroidManifest.xml:21:5-23:41
MERGED from [androidx.tracing:tracing:1.0.0] /home/michael/.gradle/caches/transforms-3/ed7ed0ca27edb40e377e214bdfbdd39a/transformed/jetified-tracing-1.0.0/AndroidManifest.xml:20:5-22:41
MERGED from [androidx.tracing:tracing:1.0.0] /home/michael/.gradle/caches/transforms-3/ed7ed0ca27edb40e377e214bdfbdd39a/transformed/jetified-tracing-1.0.0/AndroidManifest.xml:20:5-22:41
MERGED from [androidx.lifecycle:lifecycle-livedata:2.0.0] /home/michael/.gradle/caches/transforms-3/eecd0188d0cf41e88de876d649a36214/transformed/lifecycle-livedata-2.0.0/AndroidManifest.xml:20:5-44
MERGED from [androidx.lifecycle:lifecycle-livedata:2.0.0] /home/michael/.gradle/caches/transforms-3/eecd0188d0cf41e88de876d649a36214/transformed/lifecycle-livedata-2.0.0/AndroidManifest.xml:20:5-44
MERGED from [androidx.lifecycle:lifecycle-livedata-core:2.3.1] /home/michael/.gradle/caches/transforms-3/d1f4bbc3f5cd7e1c330f82edcfb16327/transformed/lifecycle-livedata-core-2.3.1/AndroidManifest.xml:20:5-22:41
MERGED from [androidx.lifecycle:lifecycle-livedata-core:2.3.1] /home/michael/.gradle/caches/transforms-3/d1f4bbc3f5cd7e1c330f82edcfb16327/transformed/lifecycle-livedata-core-2.3.1/AndroidManifest.xml:20:5-22:41
MERGED from [androidx.lifecycle:lifecycle-runtime:2.4.0] /home/michael/.gradle/caches/transforms-3/f5b1cf69ca8682e4d6b881300287a614/transformed/lifecycle-runtime-2.4.0/AndroidManifest.xml:20:5-22:41
MERGED from [androidx.lifecycle:lifecycle-runtime:2.4.0] /home/michael/.gradle/caches/transforms-3/f5b1cf69ca8682e4d6b881300287a614/transformed/lifecycle-runtime-2.4.0/AndroidManifest.xml:20:5-22:41
MERGED from [androidx.arch.core:core-runtime:2.1.0] /home/michael/.gradle/caches/transforms-3/22eb259cbf1a4aa11334cf36c7a52187/transformed/core-runtime-2.1.0/AndroidManifest.xml:20:5-22:41
MERGED from [androidx.arch.core:core-runtime:2.1.0] /home/michael/.gradle/caches/transforms-3/22eb259cbf1a4aa11334cf36c7a52187/transformed/core-runtime-2.1.0/AndroidManifest.xml:20:5-22:41
MERGED from [androidx.documentfile:documentfile:1.0.0] /home/michael/.gradle/caches/transforms-3/e55723aeacef8d217e23fbf922a70733/transformed/documentfile-1.0.0/AndroidManifest.xml:20:5-44
MERGED from [androidx.documentfile:documentfile:1.0.0] /home/michael/.gradle/caches/transforms-3/e55723aeacef8d217e23fbf922a70733/transformed/documentfile-1.0.0/AndroidManifest.xml:20:5-44
MERGED from [androidx.localbroadcastmanager:localbroadcastmanager:1.0.0] /home/michael/.gradle/caches/transforms-3/6b2bca196f44edb806d00295fdcab713/transformed/localbroadcastmanager-1.0.0/AndroidManifest.xml:20:5-44
MERGED from [androidx.localbroadcastmanager:localbroadcastmanager:1.0.0] /home/michael/.gradle/caches/transforms-3/6b2bca196f44edb806d00295fdcab713/transformed/localbroadcastmanager-1.0.0/AndroidManifest.xml:20:5-44
MERGED from [androidx.print:print:1.0.0] /home/michael/.gradle/caches/transforms-3/43037c0b2dd43be656c119826bff6d23/transformed/print-1.0.0/AndroidManifest.xml:20:5-44
MERGED from [androidx.print:print:1.0.0] /home/michael/.gradle/caches/transforms-3/43037c0b2dd43be656c119826bff6d23/transformed/print-1.0.0/AndroidManifest.xml:20:5-44
MERGED from [androidx.interpolator:interpolator:1.0.0] /home/michael/.gradle/caches/transforms-3/a30726b6f8c841ac03bf6f43d779f480/transformed/interpolator-1.0.0/AndroidManifest.xml:20:5-44
MERGED from [androidx.interpolator:interpolator:1.0.0] /home/michael/.gradle/caches/transforms-3/a30726b6f8c841ac03bf6f43d779f480/transformed/interpolator-1.0.0/AndroidManifest.xml:20:5-44
MERGED from [androidx.annotation:annotation-experimental:1.1.0] /home/michael/.gradle/caches/transforms-3/29c7b199d4646ee497ba13091e7b830d/transformed/jetified-annotation-experimental-1.1.0/AndroidManifest.xml:20:5-22:41
MERGED from [androidx.annotation:annotation-experimental:1.1.0] /home/michael/.gradle/caches/transforms-3/29c7b199d4646ee497ba13091e7b830d/transformed/jetified-annotation-experimental-1.1.0/AndroidManifest.xml:20:5-22:41
INJECTED from /home/michael/AndroidStudioProjects/ClockOnly/app/src/main/AndroidManifest.xml
INJECTED from /home/michael/AndroidStudioProjects/ClockOnly/app/src/main/AndroidManifest.xml
	android:targetSdkVersion
		INJECTED from /home/michael/AndroidStudioProjects/ClockOnly/app/src/main/AndroidManifest.xml
		ADDED from /home/michael/AndroidStudioProjects/ClockOnly/app/src/main/AndroidManifest.xml
		INJECTED from /home/michael/AndroidStudioProjects/ClockOnly/app/src/main/AndroidManifest.xml
	android:minSdkVersion
		INJECTED from /home/michael/AndroidStudioProjects/ClockOnly/app/src/main/AndroidManifest.xml
		ADDED from /home/michael/AndroidStudioProjects/ClockOnly/app/src/main/AndroidManifest.xml
		INJECTED from /home/michael/AndroidStudioProjects/ClockOnly/app/src/main/AndroidManifest.xml
provider#androidx.startup.InitializationProvider
ADDED from [androidx.emoji2:emoji2:1.0.0] /home/michael/.gradle/caches/transforms-3/86bbdb4c704f0c6ef69f85fd6941d5d8/transformed/jetified-emoji2-1.0.0/AndroidManifest.xml:26:9-34:20
MERGED from [androidx.lifecycle:lifecycle-process:2.4.0] /home/michael/.gradle/caches/transforms-3/60fb03f7868607ff1baa13fa3ab998ab/transformed/jetified-lifecycle-process-2.4.0/AndroidManifest.xml:26:9-34:20
MERGED from [androidx.lifecycle:lifecycle-process:2.4.0] /home/michael/.gradle/caches/transforms-3/60fb03f7868607ff1baa13fa3ab998ab/transformed/jetified-lifecycle-process-2.4.0/AndroidManifest.xml:26:9-34:20
MERGED from [androidx.startup:startup-runtime:1.0.0] /home/michael/.gradle/caches/transforms-3/50797515ba23eae0141ac3fb36437520/transformed/jetified-startup-runtime-1.0.0/AndroidManifest.xml:26:9-30:34
MERGED from [androidx.startup:startup-runtime:1.0.0] /home/michael/.gradle/caches/transforms-3/50797515ba23eae0141ac3fb36437520/transformed/jetified-startup-runtime-1.0.0/AndroidManifest.xml:26:9-30:34
	tools:node
		ADDED from [androidx.emoji2:emoji2:1.0.0] /home/michael/.gradle/caches/transforms-3/86bbdb4c704f0c6ef69f85fd6941d5d8/transformed/jetified-emoji2-1.0.0/AndroidManifest.xml:30:13-31
	android:authorities
		ADDED from [androidx.emoji2:emoji2:1.0.0] /home/michael/.gradle/caches/transforms-3/86bbdb4c704f0c6ef69f85fd6941d5d8/transformed/jetified-emoji2-1.0.0/AndroidManifest.xml:28:13-68
	android:exported
		ADDED from [androidx.emoji2:emoji2:1.0.0] /home/michael/.gradle/caches/transforms-3/86bbdb4c704f0c6ef69f85fd6941d5d8/transformed/jetified-emoji2-1.0.0/AndroidManifest.xml:29:13-37
	android:name
		ADDED from [androidx.emoji2:emoji2:1.0.0] /home/michael/.gradle/caches/transforms-3/86bbdb4c704f0c6ef69f85fd6941d5d8/transformed/jetified-emoji2-1.0.0/AndroidManifest.xml:27:13-67
meta-data#androidx.emoji2.text.EmojiCompatInitializer
ADDED from [androidx.emoji2:emoji2:1.0.0] /home/michael/.gradle/caches/transforms-3/86bbdb4c704f0c6ef69f85fd6941d5d8/transformed/jetified-emoji2-1.0.0/AndroidManifest.xml:31:13-33:52
	android:value
		ADDED from [androidx.emoji2:emoji2:1.0.0] /home/michael/.gradle/caches/transforms-3/86bbdb4c704f0c6ef69f85fd6941d5d8/transformed/jetified-emoji2-1.0.0/AndroidManifest.xml:33:17-49
	android:name
		ADDED from [androidx.emoji2:emoji2:1.0.0] /home/michael/.gradle/caches/transforms-3/86bbdb4c704f0c6ef69f85fd6941d5d8/transformed/jetified-emoji2-1.0.0/AndroidManifest.xml:32:17-75
meta-data#androidx.lifecycle.ProcessLifecycleInitializer
ADDED from [androidx.lifecycle:lifecycle-process:2.4.0] /home/michael/.gradle/caches/transforms-3/60fb03f7868607ff1baa13fa3ab998ab/transformed/jetified-lifecycle-process-2.4.0/AndroidManifest.xml:31:13-33:52
	android:value
		ADDED from [androidx.lifecycle:lifecycle-process:2.4.0] /home/michael/.gradle/caches/transforms-3/60fb03f7868607ff1baa13fa3ab998ab/transformed/jetified-lifecycle-process-2.4.0/AndroidManifest.xml:33:17-49
	android:name
		ADDED from [androidx.lifecycle:lifecycle-process:2.4.0] /home/michael/.gradle/caches/transforms-3/60fb03f7868607ff1baa13fa3ab998ab/transformed/jetified-lifecycle-process-2.4.0/AndroidManifest.xml:32:17-78
